17 Cluster 15 | Analysis of Genes in the Endothelial Cluster
…
            Analysis of Genes in the Endothelial Cluster

17 Cluster 15

Sample data from the fifteenth cluster:

fifteenth_cluster <- readxl::read_xlsx('EndothelialCluster15.xlsx')
fifteenth_cluster

## # A tibble: 175 x 5
##    GeneName GeneType       MaxExpression MaxCluster SecondCluster
##    <chr>    <chr>                  <dbl>      <dbl>         <dbl>
##  1 Uck2     Protein Coding           492         15            16
##  2 Fam193   Protein Coding           512         15            13
##  3 Arid2    Protein Coding           443         15             7
##  4 Nsd1     Protein Coding           609         15            10
##  5 Wdr33    Protein Coding           421         15            16
##  6 Ash1l    Protein Coding           680         15            13
##  7 Ccar1    Protein Coding           480         15            13
##  8 Glg1     Protein Coding           588         15            11
##  9 Rbm5     Protein Coding           405         15            13
## 10 Gpatch8  Protein Coding           493         15             9
## # ... with 165 more rows
…
Ordering the genes on the basis of Max Expression:

## # A tibble: 175 x 5
##    GeneName GeneType       MaxExpression MaxCluster SecondCluster
##    <chr>    <chr>                  <dbl>      <dbl>         <dbl>
##  1 Kansl1   Protein Coding          1140         15             4
##  2 Arih1    Protein Coding          1100         15            16
##  3 Gnb1     Protein Coding          1030         15            16
##  4 Ankrd11  Protein Coding           991         15            10
##  5 Rbm39    Protein Coding           934         15            13
##  6 Prrc2c   Protein Coding           932         15             4
##  7 Prpf40a  Protein Coding           913         15            10
##  8 Top1     Protein Coding           891         15             9
##  9 Arid4b   Protein Coding           877         15             6
## 10 Csnk1a1  Protein Coding           876         15            12
## # ... with 165 more rows
…
