18 Cluster 16 | Analysis of Genes in the Endothelial Cluster
…
            Analysis of Genes in the Endothelial Cluster

18 Cluster 16

Sample data from the sixteenth Cluster

sixteenth_cluster <- readxl::read_xlsx('EndothelialCluster16.xlsx')
sixteenth_cluster

## # A tibble: 50 x 5
##    GeneName GeneType       MaxExpression MaxCluster SecondCluster
##    <chr>    <chr>                  <dbl>      <dbl>         <dbl>
##  1 Ncor1    Protein Coding           587         16            13
##  2 Tra2a    Protein Coding           498         16             3
##  3 Whsc1l1  Protein Coding           430         16            12
##  4 Atrx     Protein Coding           923         16            11
##  5 lno80    Protein Coding           398         16            13
##  6 Luc713   Protein Coding           400         16            13
##  7 Dnajc1   Protein Coding           503         16             5
##  8 Al314180 Protein Coding           389         16            10
##  9 Pds5b    Protein Coding           488         16            13
## 10 Smg6     Protein Coding           697         16             7
## # ... with 40 more rows
…
Ordering the genes on the basis of Max Expression:

## # A tibble: 50 x 5
##    GeneName GeneType       MaxExpression MaxCluster SecondCluster
##    <chr>    <chr>                  <dbl>      <dbl>         <dbl>
##  1 Dach1    Protein Coding          4590         16             2
##  2 Meis2    Protein Coding          2600         16            13
##  3 Tmtc2    Protein Coding          2360         16            10
##  4 Foxp1    Protein Coding          1980         16            12
##  5 Pcdh17   Protein Coding          1860         16             1
##  6 Adgrl2   Protein Coding          1730         16             5
##  7 Ldlrad4  Protein Coding          1480         16             7
##  8 Nckap5   Protein Coding          1410         16             3
##  9 Edil3    Protein Coding          1370         16            12
## 10 Arhgap28 Protein Coding          1220         16             7
## # ... with 40 more rows
…
