15 Cluster 13 | Analysis of Genes in the Endothelial Cluster
…
            Analysis of Genes in the Endothelial Cluster

15 Cluster 13

Sample data from the Thirteenth Cluster:

thirteenth_cluster <- readxl::read_xlsx('EndothelialCluster13.xlsx')
thirteenth_cluster

## # A tibble: 40 x 5
##    GeneName      GeneType       MaxExpression MaxCluster SecondCluster
##    <chr>         <chr>                  <dbl>      <dbl>         <dbl>
##  1 2610037D02Rik lincRNA                  549         13            14
##  2 Hpe2          Protein Coding           562         13             4
##  3 Alcam         Protein Coding           607         13             4
##  4 Eya4          Protein Coding           467         13             4
##  5 Rora          Protein Coding          1230         13             4
##  6 Col25a1       Protein Coding           416         13             4
##  7 Sgcd          Protein Coding           586         13             4
##  8 Col1a2        Protein Coding           514         13             4
##  9 Bnc2          Protein Coding           732         13             4
## 10 Mid1          Protein Coding           476         13            14
## # ... with 30 more rows
…
Ordering the genes on the basis of Max Expression:

## # A tibble: 40 x 5
##    GeneName      GeneType             MaxExpression MaxCluster SecondCluster
##    <chr>         <chr>                        <dbl>      <dbl>         <dbl>
##  1 Meg3          Protein Coding                2030         13             8
##  2 Tenm3         Protein Coding                1440         13             3
##  3 Robo2         Protein Coding                1360         13             8
##  4 Adgrl3        Protein Coding                1360         13             8
##  5 Rora          Protein Coding                1230         13             4
##  6 Aff3          Protein Coding                 975         13             4
##  7 Foxp2         Protein Coding                 929         13             4
##  8 Zfhx3         Protein Coding                 924         13             8
##  9 2610203C20Rik Processed transcript           909         13             3
## 10 Pi4ka         Protein Coding                 863         13            14
## # ... with 30 more rows
…
