12 Cluster 10 | Analysis of Genes in the Endothelial Cluster
…
            Analysis of Genes in the Endothelial Cluster

12 Cluster 10

Sample Data from the tenth Cluster:

## # A tibble: 73 x 5
##    GeneName GeneType       MaxExpression MaxCluster SecondCluster
##    <chr>    <chr>                  <dbl>      <dbl>         <dbl>
##  1 Kyat3    Protein Coding           464         10             7
##  2 Prkar1b  Protein Coding           627         10             7
##  3 Plcl2    Protein Coding           484         10             5
##  4 Adam12   Protein Coding          1290         10             6
##  5 Vav3     Protein Coding          1540         10             6
##  6 lpo11    Protein Coding           430         10             3
##  7 Hspa5    Protein Coding           534         10            16
##  8 Prtg     Protein Coding           868         10             5
##  9 Xist     Protein Coding           920         10             5
## 10 Calr     Protein Coding           505         10             5
## # ... with 63 more rows
…
Ordering the genes on the basis of Max Expression:

## # A tibble: 73 x 5
##    GeneName GeneType       MaxExpression MaxCluster SecondCluster
##    <chr>    <chr>                  <dbl>      <dbl>         <dbl>
##  1 Mest     Protein Coding          2430         10             5
##  2 Hapln1   Protein Coding          1860         10            12
##  3 Lpp      Protein Coding          1820         10             5
##  4 Etv6     Protein Coding          1620         10             5
##  5 Vav3     Protein Coding          1540         10             6
##  6 Tcf12    Protein Coding          1510         10             3
##  7 Adam12   Protein Coding          1290         10             6
##  8 Magi3    Protein Coding          1290         10             5
##  9 Gab2     Protein Coding          1170         10            12
## 10 Flrt2    Protein Coding          1120         10             1
## # ... with 63 more rows
…
